<svg xmlns="http://www.w3.org/2000/svg" viewBox="0 0 128 128">
    <rect fill="#fff" rx="16" height="128" width="128"/>
    <path fill="#b3d4ff" d="M57.06 33.75h48.08a4 4 0 0 1 4 4v58.938a4 4 0 0 1-4 4H23.86a4 4 0 0 1-4-4V30.311a4 4 0 0 1 4-4h29.2a4 4 0 0 1 4 4v3.438z"/>
    <path fill="#fff" d="M37.508 61.014v16.91h11.076v-3.022h-7.535c-.003-12.595 0-.54 0-13.888h-3.541zm13.967.076V78h3.539v-6.586h6.88V68.52h-6.878v-4.407h7.535V61.09H51.475zm13.37 0v3.023h5.075V78h3.541V64.113h5.072V61.09H64.846zm16.817 0V78h3.54v-5.25h3.339c3.563 0 6.035-2.332 6.035-5.813 0-3.514-2.38-5.847-5.86-5.847h-7.054zm3.54 2.906h2.577c2.04 0 3.2 1.031 3.2 2.953 0 1.9-1.184 2.93-3.211 2.93H85.2v-5.883z"/>
</svg>
